new_quarto_for_try
…
Running this code results in a neat data set:

raw_data

# A tibble: 1,343 × 5
   year  locality    n_offers average_price_nominal_euros average_price_m2_nom…¹
   <chr> <chr>          <dbl> <chr>                       <chr>                 
 1 2010  Bascharage       192 593698.31000000006          3603.57               
 2 2010  Beaufort         266 461160.29                   2902.76               
 3 2010  Bech              65 621760.22                   3280.51               
 4 2010  Beckerich        176 444498.68                   2867.88               
 5 2010  Berdorf          111 504040.85                   3055.99               
 6 2010  Bertrange        264 795338.87                   4266.46               
 7 2010  Bettembourg      304 555628.29                   3343.22               
 8 2010  Bettendorf        94 495074.38                   3235.26               
 9 2010  Betzdorf         119 625914.47                   3343.05               
10 2010  Bissen            70 516465.57                   3321.65               
# ℹ 1,333 more rows
# ℹ abbreviated name: ¹​average_price_m2_nominal_euros
…
Warning: There were 2 warnings in `mutate()`.
The first warning was:
ℹ In argument: `across(starts_with("average"), as.numeric)`.
Caused by warning:
! Zorlamadan dolayı ortaya çıkan NAs
ℹ Run `dplyr::last_dplyr_warnings()` to see the 1 remaining warning.

Now this is interesting – converting the average columns to numeric resulted in some NA values. Let’s see what happened:

raw_data |>
  filter(is.na(average_price_nominal_euros))

# A tibble: 290 × 5
   year  locality         n_offers average_price_nomina…¹ average_price_m2_nom…²
   <chr> <chr>               <dbl>                  <dbl>                  <dbl>
 1 2010  Consthum               29                     NA                     NA
 2 2010  Esch-sur-Sûre           7                     NA                     NA
 3 2010  Heiderscheid           29                     NA                     NA
 4 2010  Hoscheid               26                     NA                     NA
 5 2010  Saeul                  14                     NA                     NA
 6 2010  <NA>                   NA                     NA                     NA
 7 2010  <NA>                   NA                     NA                     NA
 8 2010  Total d'offres      19278                     NA                     NA
 9 2010  <NA>                   NA                     NA                     NA
10 2010  Source : Minist…       NA                     NA                     NA
# ℹ 280 more rows
# ℹ abbreviated names: ¹​average_price_nominal_euros,
#   ²​average_price_m2_nominal_euros
…
filtered_data

# A tibble: 55 × 12
       X  year locality   n_offers average_price_nomina…¹ average_price_m2_nom…²
   <int> <int> <chr>         <int>                  <dbl>                  <dbl>
 1    32  2010 Esch-sur-…      750                493472.                  2953.
 2    63  2010 Luxembourg     1186                687346.                  3936.
 3    64  2010 Mamer           351                728893.                  3699.
 4    91  2010 Schengen         66                602405.                  3020.
 5   114  2010 Wincrange       363                412102.                  2479.
 6   148  2011 Esch-sur-…      843                537631.                  3057.
 7   179  2011 Luxembourg     1309                781793.                  4371.
 8   180  2011 Mamer           285                824055.                  4112.
 9   207  2011 Schengen         35                749086.                  3537.
10   230  2011 Wincrange       431                429011.                  2563.
# ℹ 45 more rows
# ℹ abbreviated names: ¹​average_price_nominal_euros,
#   ²​average_price_m2_nominal_euros
# ℹ 6 more variables: p0 <dbl>, p0_m2 <dbl>, pl <dbl>, pl_m2 <dbl>,
#   pl_in_perc <dbl>, pl_m2_in_perc <dbl>
